<svg class="lds-flat-spinner" width="80px" height="80px" xmlns="http://www.w3.org/2000/svg" xmlns:xlink="http://www.w3.org/1999/xlink" viewBox="0 0 100 100" preserveAspectRatio="xMidYMid" style="background: none;"><circle cx="50" cy="50" r="45" fill="#f6eddc"/><defs><mask id="lds-flat-spinner-mask-cf1927b3fdecd"><circle cx="50" cy="50" r="45" fill="gray"/></mask></defs><circle cx="50" cy="50" r="35" fill="#ffffff"/><g transform="rotate(0 50 50)">
  <rect x="47" y="24" rx="16.45" ry="8.4" width="6" height="12" fill="#ff4e4e">
    <animate attributeName="opacity" values="1;0" times="0;1" dur="1s" begin="-0.9166666666666666s" repeatCount="indefinite"/>
  </rect>
</g><g transform="rotate(30 50 50)">
  <rect x="47" y="24" rx="16.45" ry="8.4" width="6" height="12" fill="#ff4e4e">
    <animate attributeName="opacity" values="1;0" times="0;1" dur="1s" begin="-0.8333333333333334s" repeatCount="indefinite"/>
  </rect>
</g><g transform="rotate(60 50 50)">
  <rect x="47" y="24" rx="16.45" ry="8.4" width="6" height="12" fill="#ff4e4e">
    <animate attributeName="opacity" values="1;0" times="0;1" dur="1s" begin="-0.75s" repeatCount="indefinite"/>
  </rect>
</g><g transform="rotate(90 50 50)">
  <rect x="47" y="24" rx="16.45" ry="8.4" width="6" height="12" fill="#ff4e4e">
    <animate attributeName="opacity" values="1;0" times="0;1" dur="1s" begin="-0.6666666666666666s" repeatCount="indefinite"/>
  </rect>
</g><g transform="rotate(120 50 50)">
  <rect x="47" y="24" rx="16.45" ry="8.4" width="6" height="12" fill="#ff4e4e">
    <animate attributeName="opacity" values="1;0" times="0;1" dur="1s" begin="-0.5833333333333334s" repeatCount="indefinite"/>
  </rect>
</g><g transform="rotate(150 50 50)">
  <rect x="47" y="24" rx="16.45" ry="8.4" width="6" height="12" fill="#ff4e4e">
    <animate attributeName="opacity" values="1;0" times="0;1" dur="1s" begin="-0.5s" repeatCount="indefinite"/>
  </rect>
</g><g transform="rotate(180 50 50)">
  <rect x="47" y="24" rx="16.45" ry="8.4" width="6" height="12" fill="#ff4e4e">
    <animate attributeName="opacity" values="1;0" times="0;1" dur="1s" begin="-0.4166666666666667s" repeatCount="indefinite"/>
  </rect>
</g><g transform="rotate(210 50 50)">
  <rect x="47" y="24" rx="16.45" ry="8.4" width="6" height="12" fill="#ff4e4e">
    <animate attributeName="opacity" values="1;0" times="0;1" dur="1s" begin="-0.3333333333333333s" repeatCount="indefinite"/>
  </rect>
</g><g transform="rotate(240 50 50)">
  <rect x="47" y="24" rx="16.45" ry="8.4" width="6" height="12" fill="#ff4e4e">
    <animate attributeName="opacity" values="1;0" times="0;1" dur="1s" begin="-0.25s" repeatCount="indefinite"/>
  </rect>
</g><g transform="rotate(270 50 50)">
  <rect x="47" y="24" rx="16.45" ry="8.4" width="6" height="12" fill="#ff4e4e">
    <animate attributeName="opacity" values="1;0" times="0;1" dur="1s" begin="-0.16666666666666666s" repeatCount="indefinite"/>
  </rect>
</g><g transform="rotate(300 50 50)">
  <rect x="47" y="24" rx="16.45" ry="8.4" width="6" height="12" fill="#ff4e4e">
    <animate attributeName="opacity" values="1;0" times="0;1" dur="1s" begin="-0.08333333333333333s" repeatCount="indefinite"/>
  </rect>
</g><g transform="rotate(330 50 50)">
  <rect x="47" y="24" rx="16.45" ry="8.4" width="6" height="12" fill="#ff4e4e">
    <animate attributeName="opacity" values="1;0" times="0;1" dur="1s" begin="0s" repeatCount="indefinite"/>
  </rect>
</g></svg>